{
    "bundle": {
        "css/main": {
            "styles": [
                "userfrosting/css/AdminLTE.css",
                "plex/css/AdminLTE-skins-plex.css",
                "userfrosting/css/userfrosting.css",

                "font-starcraft/css/font-starcraft.css",
                "userfrosting/css/tablesorter-reflow.css"
            ],
            "options": {
                "result": {
                    "type": {
                        "styles": "plain"
                    }
                },
                "sprinkle": {
                    "onCollision": "merge"
                }
            }
        },
        "js/tables": {
            "scripts": [
                "vendor/moment/moment.js",
                "userfrosting/js/handlebars-helpers.js",
                "vendor/tablesorter/dist/js/jquery.tablesorter.js",
                "vendor/tablesorter/dist/js/jquery.tablesorter.widgets.js",
                "userfrosting/js/tablesorter/widget-sort2Hash.js",
                "vendor/tablesorter/dist/js/widgets/widget-columnSelector.min.js",
                "vendor/tablesorter/dist/js/widgets/widget-reflow.min.js",
                "vendor/tablesorter/dist/js/widgets/widget-pager.min.js",
                "userfrosting/js/query-string.js",
                "userfrosting/js/uf-table.js"
            ],
            "options": {
                "result": {
                    "type": {
                        "scripts": "plain"
                    }
                }
            }
        },
        "css/form-widgets": {
            "styles": [
                "userfrosting/css/uf-collection.css"
            ],
            "options": {
                "result": {
                    "type": {
                        "styles": "plain"
                    }
                }
            }
        },
        "js/pages/libraries": {
            "scripts": [
                "plex/js/pages/libraries.js"
            ],
            "options": {
                "result": {
                    "type": {
                        "scripts": "plain"
                    }
                }
            }
        },
        "js/pages/library": {
            "scripts": [
                "plex/js/pages/library.js"
            ],
            "options": {
                "result": {
                    "type": {
                        "scripts": "plain"
                    }
                }
            }
        }
    }
}